{
  "testId" : "1-studenti590px.gspec",
  "name" : "studenti590px.gspec",
  "report" : {
    "nodes" : [ {
      "name" : "Simple check",
      "status" : "info",
      "nodes" : [ {
        "name" : "check  studenti590px.gspec --url http://localhost/studenti.html --size 610x768 --htmlreport izvjestaji",
        "status" : "info",
        "nodes" : [ {
          "name" : "Check layout: studenti590px.gspec included tags: ",
          "status" : "info",
          "time" : 1541063691816,
          "sections" : [ {
            "name" : "Main",
            "place" : {
              "filePath" : "studenti590px.gspec",
              "lineNumber" : 10
            },
            "objects" : [ {
              "name" : "zaglavlje",
              "specs" : [ {
                "status" : "info",
                "place" : {
                  "filePath" : "studenti590px.gspec",
                  "lineNumber" : 12
                },
                "name" : "inside screen",
                "highlight" : [ "zaglavlje", "screen" ]
              } ]
            }, {
              "name" : "logo",
              "specs" : [ {
                "status" : "info",
                "place" : {
                  "filePath" : "studenti590px.gspec",
                  "lineNumber" : 14
                },
                "name" : "inside zaglavlje",
                "highlight" : [ "logo", "zaglavlje" ]
              }, {
                "status" : "info",
                "place" : {
                  "filePath" : "studenti590px.gspec",
                  "lineNumber" : 15
                },
                "name" : "above meni 5 to 20 px",
                "highlight" : [ "logo", "meni" ]
              } ]
            }, {
              "name" : "naslov",
              "specs" : [ {
                "status" : "info",
                "place" : {
                  "filePath" : "studenti590px.gspec",
                  "lineNumber" : 17
                },
                "name" : "inside zaglavlje",
                "highlight" : [ "naslov", "zaglavlje" ]
              } ]
            }, {
              "name" : "meni",
              "specs" : [ {
                "status" : "info",
                "place" : {
                  "filePath" : "studenti590px.gspec",
                  "lineNumber" : 19
                },
                "name" : "inside zaglavlje",
                "highlight" : [ "meni", "zaglavlje" ]
              } ]
            }, {
              "name" : "podnozije",
              "specs" : [ {
                "status" : "info",
                "place" : {
                  "filePath" : "studenti590px.gspec",
                  "lineNumber" : 21
                },
                "name" : "inside screen",
                "highlight" : [ "podnozije", "screen" ]
              }, {
                "status" : "info",
                "place" : {
                  "filePath" : "studenti590px.gspec",
                  "lineNumber" : 22
                },
                "name" : "text is \"Web tehnologije 2018/19\"",
                "highlight" : [ "podnozije" ]
              }, {
                "status" : "info",
                "place" : {
                  "filePath" : "studenti590px.gspec",
                  "lineNumber" : 23
                },
                "name" : "below lijevaStrana ~0px",
                "highlight" : [ "podnozije", "lijevaStrana" ]
              } ]
            }, {
              "name" : "desnaStrana",
              "specs" : [ {
                "status" : "info",
                "place" : {
                  "filePath" : "studenti590px.gspec",
                  "lineNumber" : 25
                },
                "name" : "above lijevaStrana ~0px",
                "highlight" : [ "desnaStrana", "lijevaStrana" ]
              }, {
                "status" : "info",
                "place" : {
                  "filePath" : "studenti590px.gspec",
                  "lineNumber" : 26
                },
                "name" : "width ~98% of screen/width",
                "highlight" : [ "desnaStrana" ]
              } ]
            }, {
              "name" : "lijevaStrana",
              "specs" : [ {
                "status" : "info",
                "place" : {
                  "filePath" : "studenti590px.gspec",
                  "lineNumber" : 28
                },
                "name" : "width ~98% of screen/width",
                "highlight" : [ "lijevaStrana" ]
              } ]
            } ]
          } ],
          "objects" : {
            "meni" : {
              "area" : [ 8, 84, 565, 30 ]
            },
            "naslov" : {
              "area" : [ 8, 21, 565, 38 ]
            },
            "screen" : {
              "area" : [ 0, 0, 581, 692 ]
            },
            "logo" : {
              "area" : [ 13, 25, 50, 50 ]
            },
            "zaglavlje" : {
              "area" : [ 8, 21, 565, 93 ]
            },
            "podnozije" : {
              "area" : [ 8, 639, 565, 44 ]
            },
            "desnaStrana" : {
              "area" : [ 8, 114, 565, 268 ]
            },
            "lijevaStrana" : {
              "area" : [ 8, 382, 565, 257 ]
            }
          },
          "screenshot" : "layout-1-screenshot.png",
          "type" : "layout"
        } ],
        "time" : 1541063690613,
        "type" : "node"
      } ],
      "time" : 1541063683944,
      "type" : "node"
    } ]
  }
}