{
  "tests" : [ {
    "name" : "commit.gspec",
    "startedAt" : 1541076138010,
    "endedAt" : 1541076162441,
    "failed" : false,
    "statistic" : {
      "passed" : 12,
      "errors" : 0,
      "warnings" : 0,
      "total" : 12
    },
    "testId" : "1-commit.gspec",
    "duration" : 24431,
    "failed" : false
  } ]
}