{
  "testId" : "1-zadaci590px.gspec",
  "name" : "zadaci590px.gspec",
  "report" : {
    "nodes" : [ {
      "name" : "Simple check",
      "status" : "info",
      "nodes" : [ {
        "name" : "check  zadaci590px.gspec --url http://localhost/zadaci.html --size 590x768 --htmlreport izvjestajZadaci590px",
        "status" : "info",
        "nodes" : [ {
          "name" : "Check layout: zadaci590px.gspec included tags: ",
          "status" : "info",
          "time" : 1541067879126,
          "sections" : [ {
            "name" : "Main",
            "place" : {
              "filePath" : "zadaci590px.gspec",
              "lineNumber" : 15
            },
            "objects" : [ {
              "name" : "zaglavlje",
              "specs" : [ {
                "status" : "info",
                "place" : {
                  "filePath" : "zadaci590px.gspec",
                  "lineNumber" : 17
                },
                "name" : "inside screen",
                "highlight" : [ "zaglavlje", "screen" ]
              } ]
            }, {
              "name" : "logo",
              "specs" : [ {
                "status" : "info",
                "place" : {
                  "filePath" : "zadaci590px.gspec",
                  "lineNumber" : 19
                },
                "name" : "inside zaglavlje",
                "highlight" : [ "logo", "zaglavlje" ]
              }, {
                "status" : "info",
                "place" : {
                  "filePath" : "zadaci590px.gspec",
                  "lineNumber" : 20
                },
                "name" : "above meni 5 to 20 px",
                "highlight" : [ "logo", "meni" ]
              } ]
            }, {
              "name" : "naslov",
              "specs" : [ {
                "status" : "info",
                "place" : {
                  "filePath" : "zadaci590px.gspec",
                  "lineNumber" : 22
                },
                "name" : "inside zaglavlje",
                "highlight" : [ "naslov", "zaglavlje" ]
              } ]
            }, {
              "name" : "meni",
              "specs" : [ {
                "status" : "info",
                "place" : {
                  "filePath" : "zadaci590px.gspec",
                  "lineNumber" : 24
                },
                "name" : "inside zaglavlje",
                "highlight" : [ "meni", "zaglavlje" ]
              } ]
            }, {
              "name" : "podnozije",
              "specs" : [ {
                "status" : "info",
                "place" : {
                  "filePath" : "zadaci590px.gspec",
                  "lineNumber" : 26
                },
                "name" : "inside screen",
                "highlight" : [ "podnozije", "screen" ]
              }, {
                "status" : "info",
                "place" : {
                  "filePath" : "zadaci590px.gspec",
                  "lineNumber" : 27
                },
                "name" : "text is \"Web tehnologije 2018/19\"",
                "highlight" : [ "podnozije" ]
              }, {
                "status" : "info",
                "place" : {
                  "filePath" : "zadaci590px.gspec",
                  "lineNumber" : 28
                },
                "name" : "below desnaStrana ~0px",
                "highlight" : [ "podnozije", "desnaStrana" ]
              } ]
            }, {
              "name" : "desnaStrana",
              "specs" : [ {
                "status" : "info",
                "place" : {
                  "filePath" : "zadaci590px.gspec",
                  "lineNumber" : 30
                },
                "name" : "below lijevaStrana_2 ~0 px",
                "highlight" : [ "desnaStrana", "lijevaStrana_2" ]
              } ]
            }, {
              "name" : "lijevaStrana_1",
              "specs" : [ {
                "status" : "info",
                "place" : {
                  "filePath" : "zadaci590px.gspec",
                  "lineNumber" : 32
                },
                "name" : "below zaglavlje ~0 px",
                "highlight" : [ "lijevaStrana_1", "zaglavlje" ]
              } ]
            }, {
              "name" : "lijevaStrana_2",
              "specs" : [ {
                "status" : "info",
                "place" : {
                  "filePath" : "zadaci590px.gspec",
                  "lineNumber" : 34
                },
                "name" : "below lijevaStrana_1 ~0 px",
                "highlight" : [ "lijevaStrana_2", "lijevaStrana_1" ]
              } ]
            }, {
              "name" : "listaGodina",
              "specs" : [ {
                "status" : "info",
                "place" : {
                  "filePath" : "zadaci590px.gspec",
                  "lineNumber" : 36
                },
                "name" : "inside lijevaStrana_1",
                "highlight" : [ "listaGodina", "lijevaStrana_1" ]
              } ]
            }, {
              "name" : "listaImena",
              "specs" : [ {
                "status" : "info",
                "place" : {
                  "filePath" : "zadaci590px.gspec",
                  "lineNumber" : 38
                },
                "name" : "inside lijevaStrana_2",
                "highlight" : [ "listaImena", "lijevaStrana_2" ]
              } ]
            }, {
              "name" : "ime",
              "specs" : [ {
                "status" : "info",
                "place" : {
                  "filePath" : "zadaci590px.gspec",
                  "lineNumber" : 40
                },
                "name" : "inside lijevaStrana_2",
                "highlight" : [ "ime", "lijevaStrana_2" ]
              } ]
            }, {
              "name" : "dugme",
              "specs" : [ {
                "status" : "info",
                "place" : {
                  "filePath" : "zadaci590px.gspec",
                  "lineNumber" : 42
                },
                "name" : "inside lijevaStrana_2",
                "highlight" : [ "dugme", "lijevaStrana_2" ]
              }, {
                "status" : "info",
                "place" : {
                  "filePath" : "zadaci590px.gspec",
                  "lineNumber" : 43
                },
                "name" : "below ime 5 to 30 px",
                "highlight" : [ "dugme", "ime" ]
              }, {
                "status" : "info",
                "place" : {
                  "filePath" : "zadaci590px.gspec",
                  "lineNumber" : 44
                },
                "name" : "above listaImena 5 to 50 px",
                "highlight" : [ "dugme", "listaImena" ]
              } ]
            }, {
              "name" : "folderi_2",
              "specs" : [ {
                "status" : "info",
                "place" : {
                  "filePath" : "zadaci590px.gspec",
                  "lineNumber" : 46
                },
                "name" : "inside desnaStrana",
                "highlight" : [ "folderi_2", "desnaStrana" ]
              } ]
            }, {
              "name" : "folderi_1",
              "specs" : [ {
                "status" : "info",
                "place" : {
                  "filePath" : "zadaci590px.gspec",
                  "lineNumber" : 48
                },
                "name" : "aligned vertically all folderi_2",
                "highlight" : [ "folderi_1", "folderi_2" ]
              }, {
                "status" : "info",
                "place" : {
                  "filePath" : "zadaci590px.gspec",
                  "lineNumber" : 49
                },
                "name" : "inside desnaStrana",
                "highlight" : [ "folderi_1", "desnaStrana" ]
              } ]
            }, {
              "name" : "objekti_1",
              "specs" : [ {
                "status" : "info",
                "place" : {
                  "filePath" : "zadaci590px.gspec",
                  "lineNumber" : 51
                },
                "name" : "inside folderi_1",
                "highlight" : [ "objekti_1", "folderi_1" ]
              } ]
            }, {
              "name" : "objekti_2",
              "specs" : [ {
                "status" : "info",
                "place" : {
                  "filePath" : "zadaci590px.gspec",
                  "lineNumber" : 53
                },
                "name" : "inside folderi_1",
                "highlight" : [ "objekti_2", "folderi_1" ]
              } ]
            }, {
              "name" : "objekti_3",
              "specs" : [ {
                "status" : "info",
                "place" : {
                  "filePath" : "zadaci590px.gspec",
                  "lineNumber" : 55
                },
                "name" : "inside folderi_1",
                "highlight" : [ "objekti_3", "folderi_1" ]
              } ]
            }, {
              "name" : "objekti_4",
              "specs" : [ {
                "status" : "info",
                "place" : {
                  "filePath" : "zadaci590px.gspec",
                  "lineNumber" : 57
                },
                "name" : "inside folderi_1",
                "highlight" : [ "objekti_4", "folderi_1" ]
              } ]
            }, {
              "name" : "objekti_5",
              "specs" : [ {
                "status" : "info",
                "place" : {
                  "filePath" : "zadaci590px.gspec",
                  "lineNumber" : 59
                },
                "name" : "inside folderi_1",
                "highlight" : [ "objekti_5", "folderi_1" ]
              } ]
            }, {
              "name" : "objekti_6",
              "specs" : [ {
                "status" : "info",
                "place" : {
                  "filePath" : "zadaci590px.gspec",
                  "lineNumber" : 61
                },
                "name" : "inside folderi_1",
                "highlight" : [ "objekti_6", "folderi_1" ]
              } ]
            }, {
              "name" : "objekti_7",
              "specs" : [ {
                "status" : "info",
                "place" : {
                  "filePath" : "zadaci590px.gspec",
                  "lineNumber" : 63
                },
                "name" : "inside folderi_2",
                "highlight" : [ "objekti_7", "folderi_2" ]
              } ]
            }, {
              "name" : "objekti_8",
              "specs" : [ {
                "status" : "info",
                "place" : {
                  "filePath" : "zadaci590px.gspec",
                  "lineNumber" : 65
                },
                "name" : "inside folderi_2",
                "highlight" : [ "objekti_8", "folderi_2" ]
              } ]
            }, {
              "name" : "objekti_9",
              "specs" : [ {
                "status" : "info",
                "place" : {
                  "filePath" : "zadaci590px.gspec",
                  "lineNumber" : 67
                },
                "name" : "inside folderi_2",
                "highlight" : [ "objekti_9", "folderi_2" ]
              } ]
            }, {
              "name" : "objekti_10",
              "specs" : [ {
                "status" : "info",
                "place" : {
                  "filePath" : "zadaci590px.gspec",
                  "lineNumber" : 69
                },
                "name" : "inside folderi_2",
                "highlight" : [ "objekti_10", "folderi_2" ]
              } ]
            } ]
          } ],
          "objects" : {
            "ime" : {
              "area" : [ 87, 346, 385, 29 ]
            },
            "screen" : {
              "area" : [ 0, 0, 561, 959 ]
            },
            "listaGodina" : {
              "area" : [ 88, 154, 383, 122 ]
            },
            "logo" : {
              "area" : [ 13, 25, 50, 50 ]
            },
            "folderi_1" : {
              "area" : [ 88, 631, 383, 108 ]
            },
            "folderi_2" : {
              "area" : [ 88, 779, 383, 108 ]
            },
            "meni" : {
              "area" : [ 8, 84, 545, 30 ]
            },
            "objekti_4" : {
              "area" : [ 146, 683, 100, 30 ]
            },
            "objekti_3" : {
              "area" : [ 354, 648, 100, 30 ]
            },
            "objekti_2" : {
              "area" : [ 250, 648, 100, 30 ]
            },
            "objekti_1" : {
              "area" : [ 146, 648, 100, 30 ]
            },
            "objekti_10" : {
              "area" : [ 250, 831, 100, 30 ]
            },
            "objekti_9" : {
              "area" : [ 354, 796, 100, 30 ]
            },
            "zaglavlje" : {
              "area" : [ 8, 21, 545, 93 ]
            },
            "objekti_8" : {
              "area" : [ 250, 796, 100, 30 ]
            },
            "desnaStrana" : {
              "area" : [ 8, 591, 545, 316 ]
            },
            "objekti_7" : {
              "area" : [ 146, 796, 100, 30 ]
            },
            "objekti_6" : {
              "area" : [ 354, 683, 100, 30 ]
            },
            "objekti_5" : {
              "area" : [ 250, 683, 100, 30 ]
            },
            "naslov" : {
              "area" : [ 8, 21, 545, 38 ]
            },
            "listaImena" : {
              "area" : [ 88, 423, 383, 122 ]
            },
            "dugme" : {
              "area" : [ 231, 385, 99, 33 ]
            },
            "podnozije" : {
              "area" : [ 8, 907, 545, 44 ]
            },
            "lijevaStrana_2" : {
              "area" : [ 8, 301, 545, 289 ]
            },
            "lijevaStrana_1" : {
              "area" : [ 8, 114, 545, 187 ]
            }
          },
          "screenshot" : "layout-1-screenshot.png",
          "type" : "layout"
        } ],
        "time" : 1541067877080,
        "type" : "node"
      } ],
      "time" : 1541067870164,
      "type" : "node"
    } ]
  }
}