{
  "tests" : [ {
    "name" : "addGodina.gspec",
    "startedAt" : 1541199393721,
    "endedAt" : 1541199405462,
    "failed" : false,
    "statistic" : {
      "passed" : 18,
      "errors" : 0,
      "warnings" : 0,
      "total" : 18
    },
    "testId" : "1-addgodina.gspec",
    "failed" : false,
    "duration" : 11741
  } ]
}