{
  "tests" : [ {
    "name" : "addVjezba.gspec",
    "startedAt" : 1541109256058,
    "endedAt" : 1541109269104,
    "failed" : false,
    "statistic" : {
      "passed" : 28,
      "errors" : 0,
      "warnings" : 0,
      "total" : 28
    },
    "testId" : "1-addvjezba.gspec",
    "duration" : 13046,
    "failed" : false
  } ]
}